{
  "/api": {
    "target": "http://localhost:8080/",
    "secure": false,
    "pathRewrite": {
      "^/api": ""
    },
    "changeOrigin": true
  },
  "/portal-api": {
    "target": "http://localhost:8082/",
    "secure": false,
    "pathRewrite": {
      "^/portal-api": ""
    },
    "changeOrigin": true
  }
}
